Statistics,Machine Learning,Deep Learning,R Language,Python Language,NLP,Data Engineering,Developement,SGDB,Framework,Patterns,Architecture,Cache,Devops,Cloud,Esb,Systeme,Edi,Organisation,Monitoring
statistical models,linear regression,neural network,r,flask,nlp,hadoop,c,sql server,react js,ddd,monolithic,redis,kuberneties,aws,kafka,windows,eclipse,agile,elk
statictical modeling,regression lineaire,keras,r,pandas,pos tagging,hdfs,c#,oracle,angular,tdd,microservices,memcached,jenkins,azure,rubbitmq,linux,visual studio,scrum,datadog
statistique,random forest,convolutional neural networks ,,scipy,nltk,yarn,visual basic,mysql,vue js,bdd,hexagonal,,docker,gcp,activemq,ios,visual code,spotify,zipkin
statistique descriptive,svm,tensorflow,,scikit learn,spacy,spark,java,acess,knokout js,edd,clean architecture,,ansible,s3,,ubuntu,matlab,xprogramming,new relic
inférence statistique,supervised learning,deep learning,,sklearn,pytesseract,spark streaming,sql,cassandra,spring boot,clean code,onion architecture,,terraform,glacier,,centos,windev,kanban,splunk
statistique inférentielle,clustering,cnn,,,ocr,flink,javascript,mongodb,spring data,solid,architecture n-tiers,,chef,efs,,,,jira,sentry
probabilités,dimensionality reduction,convolutional neural network,,,,kafka,java script,cosmosdb,spring batch,mvc,mvc,,puppet,storage gateway,,,,confluence,elastic beats
probabilité,acp,keras,,,,mesos ,javascript,postgresql,nhibernat,mvvm,,,packer,nat gateway,,,,,
loi de probabilité,pca,autoencoders,,,,mesosphere,typescript,couchedb,hibernat,event stroming,,,xldeploy,emr,,,,,
,xgboost,lstm,,,,hive,c++,aurora,asp .net mvc,,,,git,vpc,,,,,
,opencv,faster rcnn,,,,hbase,python,mariadb,web api,,,,gitlab,lambda,,,,,
,séries temporelles,rnn,,,,flume,go,dynamodb,express js,,,,github,ec2,,,,,
,série temporelle,ann,,,,mapreduce,vb.net,elastic search,fastify js,,,,bitbucket,iam,,,,,
,arima,réseau de neurones convolutif,,,,elk,ruby,,koa,,,,tfs,heroku,,,,,
,classification binaire,régularisation,,,,oozie,node js,,junit,,,,zookeeper,pivotal cloud foundry,,,,,
,clustering,embedding,,,,neo4j,html,,selenium,,,,marathon,,,,,,
,,embeddings,,,,spark ml,css,,symphony,,,,nexus,,,,,,
,,,,,,zookeeper,xml,,react native,,,,,,,,,,
,,,,,,,xsl,,,,,,,,,,,,
,,,,,,,xslt,,,,,,,,,,,,
,,,,,,,gorap+h51gql,,,,,,,,,,,,
,,,,,,,redux,,,,,,,,,,,,
,,,,,,,flux,,,,,,,,,,,,
,,,,,,,scala,,,,,,,,,,,,
,,,,,,,kotlin,,,,,,,,,,,,
,,,,,,,npm,,,,,,,,,,,,
,,,,,,,jest ,,,,,,,,,,,,
,,,,,,,karma,,,,,,,,,,,,
,,,,,,,jasmin,,,,,,,,,,,,
,,,,,,,cucumber,,,,,,,,,,,,
,,,,,,,specflow,,,,,,,,,,,,
,,,,,,,sass,,,,,,,,,,,,
,,,,,,,less,,,,,,,,,,,,
,,,,,,,openid connect,,,,,,,,,,,,
,,,,,,,oauth,,,,,,,,,,,,
,,,,,,,jwt,,,,,,,,,,,,
,,,,,,,t-sql,,,,,,,,,,,,
,,,,,,,plsql,,,,,,,,,,,,
,,,,,,,php,,,,,,,,,,,,
,,,,,,,jsx,,,,,,,,,,,,
,,,,,,,es6,,,,,,,,,,,,
,,,,,,,html 5,,,,,,,,,,,,
