xmin,ymin,xmax,ymax,text
251.0,2406.0,971.0,2452.0,rédaction d’articles www alpha programmer com
131.0,2406.0,239.0,2446.0,loisirs
252.0,2357.0,1259.0,2403.0,arabe langue maternelle  francais bon niveau   anglais bon niveau
108.0,2357.0,239.0,2403.0,langues
405.0,2293.0,590.0,2339.0,d’intéréts
251.0,2293.0,404.0,2339.0,centres
158.0,2220.0,238.0,2260.0,2015
53.0,2179.0,238.0,2219.0,juillet aotit
250.0,2178.0,1489.0,2265.0,développeur web  secret it  fés  stage au sein d’une startup secret it réalisation d’application de gestion de projets  php4
158.0,2128.0,238.0,2167.0,2015
250.0,2086.0,1631.0,2173.0,développeur web  bp  fés  stage au sein de la banque populaire réalisation d’une application de gestion des incidents  asp net
62.0,2086.0,238.0,2127.0,juin juillet
940.0,2005.0,1752.0,2049.0,développement d’une application de géolocalisation des trains
158.0,2004.0,238.0,2044.0,2016
248.0,1962.0,939.0,2084.0,développeur web  oncf  rabat   stage au sein de l’office national des chemins de fer   java ee  microservices
80.0,1962.0,238.0,2003.0,juin aotit
486.0,1898.0,785.0,1944.0,professionnelles
253.0,1898.0,483.0,1953.0,expériences
59.0,1825.0,238.0,1865.0,fonctionnel
249.0,1784.0,1751.0,1871.0,développement d’un framework de test fonctionnel en c   et nunit pour faciliter le test d’une application web de gestion des notes du tableau d’affichage de l’emi
163.0,1784.0,238.0,1825.0,test
250.0,1651.0,1752.0,1779.0,développement d’une application de recherche pour la bibliothéque de l’emi en utilisant les technologies du big data  cloudera apache tika  ainsi que le moteur de recherche solr et d’autres technologies conjointes  solrnet webhdfs
77.0,1651.0,239.0,1732.0,enterprise search
46.0,1599.0,239.0,1640.0,architecture
251.0,1593.0,1750.0,1645.0,etude de benchmarking sur les architectures faas  function as a service  et caas  container as a service
99.0,1505.0,239.0,1551.0,learning
250.0,1464.0,1752.0,1592.0,géneration d’un modéle permettant la prédiction des retards d’un avion donné en utilisant les données du dot  departement of transportation  et en se basant sur des algorithmes comme random forest et regression logistique de la librairie caret  langage r
105.0,1464.0,239.0,1504.0,machine
253.0,1400.0,396.0,1454.0,projets
252.0,1327.0,618.0,1373.0,android  intermédiaire
127.0,1327.0,239.0,1367.0,mobile
103.0,1276.0,239.0,1315.0,continue
250.0,1234.0,1216.0,1280.0,jenkins  débutant   maven  intermédiaire   svn  intermédiaire
66.0,1234.0,238.0,1280.0,intégration
250.0,1142.0,1637.0,1188.0,selenium  intermédiaire   junit  intermédiaire   jmeter  intermédiaire   sonar  intermédiaire
92.0,1142.0,239.0,1223.0,outils de test
250.0,1049.0,980.0,1096.0,oracle 11g  intermédiaire   mysql   sql server
101.0,1049.0,239.0,1130.0,bases de données
251.0,997.0,1749.0,1044.0,hadoop  pseudo distributed   cloudera  débutant  apache spark  débutant   apache tika  débutant
95.0,997.0,238.0,1043.0,big data
250.0,904.0,1755.0,992.0,java ee  avancé   asp net mvc5  intermédiaire   angularjs  débutant   html css  intermédiaire   php  intermédiaire  javascript  intermédiaire
250.0,853.0,1362.0,900.0,java  avancé  c   intermédiaire   c c    avancé   sql  intermédiaire
93.0,853.0,239.0,899.0,langages
510.0,789.0,775.0,843.0,informatiques
251.0,789.0,507.0,843.0,compétences
158.0,716.0,238.0,756.0,2012
251.0,715.0,1314.0,762.0,baccalauréat science mathématique b  lycée louis le grand  fés
158.0,667.0,237.0,707.0,2014
76.0,667.0,156.0,707.0,2012
251.0,665.0,1100.0,714.0,math sup spe mp  lycée moulay idriss   fes
158.0,619.0,238.0,658.0,2015
76.0,619.0,155.0,658.0,2014
252.0,617.0,1446.0,664.0,lére année a l’ecole mohammadia d’ingénieurs  génie informatique  rabat
158.0,570.0,238.0,609.0,2016
76.0,570.0,156.0,609.0,2015
251.0,568.0,1462.0,615.0,2éme année a l’ecole mohammadia d’ingénieurs  génie informatique  rabat
76.0,521.0,157.0,560.0,2016
158.0,520.0,239.0,560.0,2017
250.0,519.0,1741.0,566.0,3éme année a l’ecole mohammadia d’ingénieurs  ingénierie et qualité logicielles  rabat  bac 5
251.0,456.0,391.0,502.0,cursus
1299.0,305.0,1371.0,340.0,tant
1107.0,305.0,1298.0,340.0,novateur en
495.0,299.0,1105.0,387.0,intégrer une équipe au sein d’un projet développeur informatique
345.0,299.0,490.0,346.0,objectif
311.0,167.0,590.0,229.0,informatique
37.0,167.0,308.0,229.0,développeur
762.0,51.0,1067.0,140.0,younes
430.0,51.0,744.0,140.0,yazamil
158.0,51.0,412.0,140.0,idrissi
1126.0,39.0,1544.0,186.0,lot 10 lots lahlou hay zaza route d’ain chkef fés 06 14 81 26 14    y elidrissiyazamiq gmail com
