xmin,ymin,xmax,ymax,text,label
0.0,1881.0,1620.0,2278.0,"vie associative 2016 : aeroday volantaire dans la journée nationale de l’'aéronautique 2015 : sigcom responsable sponsoring 2014 : aiesec bardo team member projets academiques edéveloppement d'un site web de vente en ligne de livres conception et développement d’un site web permettant l’achat de livres en ligne equipe: 1 product owner scrum matser, 3 développeurs réalisation: développement de service web développement de ’interface web compétences techniques: uml,asp .net, entity framework, knockout js, kendo ui, méthodologie scrum,",5
34.0,1724.0,390.0,1851.0,francais bilingue ¢ anglais niveau avancé,4
34.0,1605.0,1520.0,1851.0,"ee °2015 2 mois axe finance — tunis arabe langue maternelle description: installation de project server 2013 sur le réseau de la société. equipe: un chef de projet, un développeur. francais bilingue réalisation: installation de machine virtuelles deploiement de machine virtuelles sur le réseau ¢ anglais niveau avancé environnement technique: vmware, sqlserver, window server, sharepoint",3
0.0,1467.0,446.0,1651.0,linux unix mac o langues:,7
34.0,1299.0,391.0,1446.0,visual studio systémes d’exploitation: window,7
38.0,1209.0,1565.0,1574.0,"eclipse netbeans . 2016 1 mois vermeg — tunis o a description: conception et réalisation d'une application java pour le déploiement visual studio automatique de fichiers ear sur un serveur d'application jboss pour l’application systémes d’exploitation: financiere megara. equipe: un chef de projet, un développeur. window réalisation: développement de fonctionnalités de l’application linux unix test de l’application sur le serveur jboss inux déploiement de fichiers ear sur un serveur distant avec ssh environnement technique: java, swing, ssh, maven, jboss,j2ee",5
37.0,1054.0,389.0,1200.0,suite jetbrains android studio,7
38.0,914.0,346.0,1039.0,¢ angular knockoutjs node j,7
38.0,771.0,309.0,890.0,html cs jquery javascript,7
38.0,710.0,1620.0,1178.0,"développement web: web: experience professionnelles html cs °2017 2 mois vermeg — tunis jquery javascript description: conception et réalisation d'une application assurant la migration de écrans megara de la version p11 vers la version p12. angular knockoutjs node j equipe: un chef de projet, un développeur. suite jetbrains android chat — réalisation: développement de fonctionnalités conception de la base de données la manipulation de données a partir d’un fichier excel création de l’intérface avec java fx environnement technique: java, java fx, mysql, hibernante, excel",5
44.0,569.0,248.0,680.0,java java ee © c++ c,7
44.0,508.0,395.0,559.0,développement logiciel:,7
4.0,434.0,1620.0,712.0,competence développement logiciel: java java ee formation °2013 2018 : institut national de science appliquées et de technologie filiere: réseaux et télécommunication 5 an de formation dont 2 an cycle préparatoire et 3 an cycle ingénieur 2009 2013 : lycée menzah 9 baccalauréat en mathématiques avec la mention trés bien.,2
521.0,324.0,1544.0,437.0,etudiant en 3°™¢ année cycle ingénieur a la recherche d'un stage entre 4 et 6 mois,3
17.0,65.0,1067.0,424.0,"preteen uu age : 23 an nationalité: tunisienne adresse : 26 rue bechir mami,ariana tunisie téléphone: +21651940803 email: khaldi.ahmed@outlook.com etudiant en 3®™¢ année cycle in stage entre 4",1
463.0,10.0,1620.0,103.0,—l0 ahmed khaldi,1
