xmin,ymin,xmax,ymax,text
483.0,2355.0,917.0,2404.0,support technique niveau 3.
483.0,2169.0,1648.0,2352.0,3. intégration d’apls google dans des applications web : géo localisation google  maps et google analytics. 4. développement d’un module de génération de rapports pdf et excel.      maintenances corrective et évolutive.
895.0,1846.0,1201.0,1894.0,composant    web    de
1068.0,1845.0,1360.0,1889.0,web    de    recherche
524.0,1845.0,1648.0,2172.0,développement   de   d'entreprises   a  la  l'international consommant des web services et intégration de celui ci dans un portail qui centralise la connaissance sur 20 millions d'entités francgaises. cette  intégration a offert au portail une dimension internationale en l’ouvrant sur plus  de 240 millions d’entreprises dans le monde. 2. migration d’un module de création de contrats en ligne: changement d’un     client web service soap par un client rest.
481.0,1706.0,1649.0,1848.0,"tdaches et responsabilités :     prise en charge d’applications web a fort trafic et développement de nouvelles     fonctionnalités a forte valeur ajoutée, de la conception a la mise en production :"
134.0,1579.0,461.0,1679.0,3ansetdemi
135.0,1574.0,1647.0,1668.0,":  développeur java jee full stack chez altares dun   bradstreet, société de conseil 04 2013   08 2016 dans le domaine de l'information financiére btob."
479.0,1299.0,1617.0,1533.0,"environnement :  microservices rest en java jee, jersey, spring  mvc, security, data , tomcat, ... plateforme aws : nosql dynamodb, elasticsearch, serverless lambda applications, datapipelines, dead letter queues, kinesis, ...      git, maven, nexus, hudson, ansible, gatling, jira, confluence, ..."
436.0,953.0,1642.0,1266.0,"développeur back end chez photobox, e commercant spécialisé dans l’impression de photos et la création d’objets personnalisés.           taches et responsabilités :  participer au développement et a  ’évolution d’une application de gestion et de stockage de volumes importants de données  créations des clients  en tirant profit de la puissance de la plateforme aws."
136.0,948.0,1607.0,1047.0,"1 an, 4 mois  f  développeur back end chez photobox, e commercant spécialisé dans impression de photos et la création d’objets personnalisés."
115.0,754.0,1727.0,920.0,"2016 lf  bulats en anglais, niveau c1  advanced , cambridge english language assessment.       expériences professionnelles :"
134.0,747.0,1636.0,797.0,"f    bulats en anglais, niveau c1  advanced , cambridge english language assessment."
483.0,573.0,1654.0,716.0,"master 2 en informatique, spécialité génie logiciel, a  ’université des sciences et techniques de montpellier. licence en informatique, a  ’université des sciences et techniques de cergy pontoise."
115.0,348.0,1727.0,549.0,bsa   mohammed.ferjani@gmail.com   @_ formations et langues :
115.0,267.0,698.0,402.0,"102 rue louis calmel, 92230 gennevilliers.  mohammed.ferjani@gmail.com     wm"
121.0,181.0,830.0,243.0,"consultant java jee, expérience 8 ans"
123.0,115.0,654.0,178.0,mohammed ferjani
