xmin,ymin,xmax,ymax,text,label
1192.0,2273.0,1787.0,2526.0,anglais moyen francais courant arabe langue maternelle,4
1265.0,2189.0,1539.0,2264.0,qq langues,4
238.0,2065.0,1190.0,2428.0,conception et réalisation d’une application d’évaluation par quiz avec net “conception et réalisation d’un réseau social professionnel en jee spring et thymleaf “ réalisation d’une application de chat multi client serveur permettant l’envoie de message textuelles et fichiers “ conception et réalisation d’une application web permettant a de étudiants de trouver de professeurs et effectuer le payement en ligne en cours,5
238.0,2026.0,1174.0,2183.0,“conception et réalisation d’un réseau social professionnel en jee,5
244.0,1952.0,539.0,2008.0,projets réalisés,5
245.0,1829.0,901.0,1874.0,se intégration continue avec jenkins et github,7
1200.0,1820.0,1742.0,1875.0,technology et framework,7
245.0,1769.0,576.0,1809.0,“ ’architecture rest,7
245.0,1710.0,1080.0,1756.0,systéme de gestion de base de données mysql oracle,7
245.0,1651.0,545.0,1694.0,j2ee j2se mvc,7
245.0,1591.0,1150.0,1635.0,ot architecture distribuées web service architecture n tier,7
254.0,1473.0,1069.0,1577.0,connaissances et competence web html5 xhtml css3 php5 javascript angular4,7
41.0,1369.0,1104.0,1453.0,baccalauréat science mathématiques option a lycée ibn yassamine taza,2
41.0,1299.0,298.0,1407.0,2012 2013,2
260.0,1291.0,1182.0,1337.0,class préparatoires mpsi mp lycée moulay youssef rabat,2
41.0,1216.0,1104.0,1262.0,cycle ingénieur d’etat a l’ecole mohammadia d’ingénieurs 2015 2018,2
244.0,1144.0,449.0,1254.0,cycle ingé,1
1248.0,1099.0,1684.0,1187.0,ldlleudses ul gp programmation,7
1399.0,1079.0,1645.0,1131.0,language de,1
42.0,960.0,1174.0,1125.0,juillet 2017 stage d’application a la radeeta régie autonome de —aovt 2017 distribution d'eau et d'electricité — taza réalisation d’une application web pour gérer et filtrer le différents courriers recus et envoyés en utilisant asp net,3
42.0,781.0,1166.0,946.0,stage d’initiation a la radeeta régie autonome de distribution d'eau et d'electricité — taza observation et travaux dans différents service de l'entreprise le systémes d'informations clientéle achats finance comptabilité,3
68.0,664.0,768.0,780.0,© expérience professionnelle,3
0.0,0.0,1787.0,2180.0,juillet 2016 juillet 2017 — aoat 2017 expérience professionnelle stage d’initiation a la radeeta régie autonome de distribution d'eau et d'electricité — taza observation et travaux dans différents service de l'entreprise le systémes d'informations clientéle achats finance comptabilité stage d’application a la radeeta régie autonome de distribution d'eau et d'electricité — taza réalisation d’une application web pour gérer et filtrer le différents courriers recus et envoyés en utilisant asp net cycle ingénieur d’etat a l’ecole mohammadia d’ingénieurs class préparatoires mpsi mp lycée moulay youssef rabat yassamine taza el i systéme de gestion de base de données mysql oracle u’architecture rest intégration continue avec jenkins et github projets réalisés réalisation d’un blog en utilisant le framework laravel conception et réalisation d’une application d’évaluation par quiz oe “ conception et réalisation d’un réseau social professionnel en jee contact ay language de technology et framework,3
