xmin,ymin,xmax,ymax,text,label
87.0,2108.0,1420.0,2236.0,"“ responsable communication externe et co trésoriére du comité culturel eminence certificat classique du mooc “gestion de projet” de ’ecole centrale de lille g activités et loisirs : lecture, voyage",8
87.0,1982.0,414.0,2147.0,diver,11
657.0,1981.0,918.0,2067.0,"frangais : bilingue dalf c1 86,50 100",4
978.0,1980.0,1582.0,2067.0,anglais : niveau proficiency espagnol : notion toeic 945 990,4
86.0,1734.0,615.0,2022.0,"technique technology web : sgbd: oracle, sql modélisation : uml outils: netbeans, ec autres : comptabili langues arabe : maternelle",7
86.0,1684.0,1647.0,1941.0,"competence langages de développement : c c#, visual basic, java, sql plsql, prolog technique technology web : jee, asp.net, xml, html cs sgbd: oracle, sql server, mysql, access modélisation : uml 2.0 outils: netbeans, eclipse, visual studio , dev c++, power amc autres : comptabilité générale et analytique sage , probabilités et statistiques, recherche opérationnelle",7
86.0,1438.0,1658.0,1643.0,projets jee : gestion du concours commun national 2014 — conception et développement de module gestion de academiques note et affectation scrum net vb mvc4 : réalisation d’une application web de gestion d’un restaurant access et vb.net : gestion de la bibliothéque librorum a ’emi objective c : réalisation d’un jeu de réflexion pour io,5
371.0,1144.0,1657.0,1392.0,"création de dashboard avec obiee et de grille de saisie via shuttle juillet — aout 2014 : stage 4 tanger med port authority tmpa “+ conception et développement d’un systeme d’automatisation et d’analyse de tableau de bord du port de tanger med asp.net, c#, microsoft sql server juillet aout 2013 : stage a amendis tanger “+ développement de rapport de reporting via l’outil business object",3
87.0,995.0,467.0,1107.0,professionnelles,3
87.0,945.0,1658.0,1144.0,"experience février — juin 2015 : projet de fin d’études a nell’armonia professionnelles “+ formation sur le outils d’epm : essbase, obiee, oracle hyperion planning, hyperion financial reports, shuttle migration et fusion de deux base multidimensionnelles dans une méme application essbase v11.1.2.3",3
87.0,741.0,493.0,782.0,formation 2012,2
1008.0,740.0,1467.0,785.0,"‘mohammadia d’ingénieurs, g",2
372.0,740.0,1658.0,903.0,"2012 2015 : cycle ingénieur a i’ecole mohammadia d’ingénieurs, génie informatique, option ingénierie et qualité logicielle 2010 — 2012 : cpge mpsi mp._ au centre pédagogique régional de tanger 2008 — 2010 : baccalauréat en science mathématiques b au lycée technique moulay youssef, mention bien",2
1201.0,739.0,1657.0,785.0,"informatique,",2
428.0,626.0,1301.0,780.0,option : ingenierie et qualite logicielle 2 2015 : cycle ingénieur la d’ingén,2
86.0,256.0,1461.0,609.0,"22 ans, célibataire complexe le ryads de la baie, villa n°14, ghandouri, tanger bp : 11533 médina gare tanger tél. : +212 0 6 45 95 58 49 hind.ahmamad@gmail.com ingenieur d’etat de l’ecole mohammadia d’ingenieurs",1
87.0,206.0,371.0,254.0,hind ahmamad,1
